CancelRow.v,verilog,xil_defaultlib,../../../../tetris_0_1/src/CancelRow.v,incdir="$ref_dir/../../../../tetris_0_1/src"incdir="../../../../tetris_0_1/src"
GetRandomPiece.v,verilog,xil_defaultlib,../../../../tetris_0_1/src/GetRandomPiece.v,incdir="$ref_dir/../../../../tetris_0_1/src"incdir="../../../../tetris_0_1/src"
GetTestInfo.v,verilog,xil_defaultlib,../../../../tetris_0_1/src/GetTestInfo.v,incdir="$ref_dir/../../../../tetris_0_1/src"incdir="../../../../tetris_0_1/src"
GetTetrisInfo.v,verilog,xil_defaultlib,../../../../tetris_0_1/src/GetTetrisInfo.v,incdir="$ref_dir/../../../../tetris_0_1/src"incdir="../../../../tetris_0_1/src"
debounce.v,verilog,xil_defaultlib,../../../../tetris_0_1/src/debounce.v,incdir="$ref_dir/../../../../tetris_0_1/src"incdir="../../../../tetris_0_1/src"
drop_timer.v,verilog,xil_defaultlib,../../../../tetris_0_1/src/drop_timer.v,incdir="$ref_dir/../../../../tetris_0_1/src"incdir="../../../../tetris_0_1/src"
vga.v,verilog,xil_defaultlib,../../../../tetris_0_1/src/vga.v,incdir="$ref_dir/../../../../tetris_0_1/src"incdir="../../../../tetris_0_1/src"
tetris.v,verilog,xil_defaultlib,../../../../tetris_0_1/src/tetris.v,incdir="$ref_dir/../../../../tetris_0_1/src"incdir="../../../../tetris_0_1/src"
tetris_0.v,verilog,xil_defaultlib,../../../../tetris_0_1/sim/tetris_0.v,incdir="$ref_dir/../../../../tetris_0_1/src"incdir="../../../../tetris_0_1/src"
glbl.v,Verilog,xil_defaultlib,glbl.v
