
*** Running vivado
    with args -log tetris_pl_interrupt_0_3.vds -m64 -product Vivado -mode batch -messageDb vivado.pb -notrace -source tetris_pl_interrupt_0_3.tcl


****** Vivado v2019.1 (64-bit)
  **** SW Build 2552052 on Fri May 24 14:47:09 MDT 2019
  **** IP Build 2548770 on Fri May 24 18:01:18 MDT 2019
    ** Copyright 1986-2019 Xilinx, Inc. All Rights Reserved.

source tetris_pl_interrupt_0_3.tcl -notrace
INFO: [IP_Flow 19-234] Refreshing IP repositories
WARNING: [IP_Flow 19-3685] Ignored loading user repository '/home/yuhuig/tetris/ip_repo/pl_interrupt/pl_interrupt_1.0'. The path is contained within another repository.
INFO: [IP_Flow 19-1700] Loaded user IP repository '/home/yuhuig/tetris/ip_repo'.
INFO: [IP_Flow 19-2313] Loaded Vivado IP repository '/home/yuhuig/Xilinx/Vivado/2019.1/data/ip'.
Command: synth_design -top tetris_pl_interrupt_0_3 -part xc7z020clg484-1 -mode out_of_context
Starting synth_design
Attempting to get a license for feature 'Synthesis' and/or device 'xc7z020'
INFO: [Common 17-349] Got license for feature 'Synthesis' and/or device 'xc7z020'
INFO: [Device 21-403] Loading part xc7z020clg484-1
INFO: Launching helper process for spawning children vivado processes
INFO: Helper process launched with PID 18533 
---------------------------------------------------------------------------------
Starting RTL Elaboration : Time (s): cpu = 00:00:02 ; elapsed = 00:00:03 . Memory (MB): peak = 1811.465 ; gain = 153.625 ; free physical = 3505 ; free virtual = 9605
---------------------------------------------------------------------------------
INFO: [Synth 8-6157] synthesizing module 'tetris_pl_interrupt_0_3' [/home/yuhuig/tetris/tetris_project/tetris_project.srcs/sources_1/bd/tetris/ip/tetris_pl_interrupt_0_3/synth/tetris_pl_interrupt_0_3.v:56]
INFO: [Synth 8-6157] synthesizing module 'pl_interrupt_v1_0' [/home/yuhuig/tetris/tetris_project/tetris_project.srcs/sources_1/bd/tetris/ipshared/7ff5/hdl/pl_interrupt_v1_0.v:4]
	Parameter C_pl_interrupt_DATA_WIDTH bound to: 32 - type: integer 
	Parameter C_pl_interrupt_ADDR_WIDTH bound to: 4 - type: integer 
INFO: [Synth 8-6157] synthesizing module 'pl_interrupt_v1_0_pl_interrupt' [/home/yuhuig/tetris/tetris_project/tetris_project.srcs/sources_1/bd/tetris/ipshared/7ff5/hdl/pl_interrupt_v1_0_pl_interrupt.v:4]
	Parameter C_S_AXI_DATA_WIDTH bound to: 32 - type: integer 
	Parameter C_S_AXI_ADDR_WIDTH bound to: 4 - type: integer 
	Parameter ADDR_LSB bound to: 2 - type: integer 
	Parameter OPT_MEM_ADDR_BITS bound to: 1 - type: integer 
INFO: [Synth 8-226] default block is never used [/home/yuhuig/tetris/tetris_project/tetris_project.srcs/sources_1/bd/tetris/ipshared/7ff5/hdl/pl_interrupt_v1_0_pl_interrupt.v:233]
INFO: [Synth 8-226] default block is never used [/home/yuhuig/tetris/tetris_project/tetris_project.srcs/sources_1/bd/tetris/ipshared/7ff5/hdl/pl_interrupt_v1_0_pl_interrupt.v:374]
WARNING: [Synth 8-6014] Unused sequential element slv_reg0_reg was removed.  [/home/yuhuig/tetris/tetris_project/tetris_project.srcs/sources_1/bd/tetris/ipshared/7ff5/hdl/pl_interrupt_v1_0_pl_interrupt.v:225]
INFO: [Synth 8-6155] done synthesizing module 'pl_interrupt_v1_0_pl_interrupt' (1#1) [/home/yuhuig/tetris/tetris_project/tetris_project.srcs/sources_1/bd/tetris/ipshared/7ff5/hdl/pl_interrupt_v1_0_pl_interrupt.v:4]
INFO: [Synth 8-6155] done synthesizing module 'pl_interrupt_v1_0' (2#1) [/home/yuhuig/tetris/tetris_project/tetris_project.srcs/sources_1/bd/tetris/ipshared/7ff5/hdl/pl_interrupt_v1_0.v:4]
INFO: [Synth 8-6155] done synthesizing module 'tetris_pl_interrupt_0_3' (3#1) [/home/yuhuig/tetris/tetris_project/tetris_project.srcs/sources_1/bd/tetris/ip/tetris_pl_interrupt_0_3/synth/tetris_pl_interrupt_0_3.v:56]
WARNING: [Synth 8-3331] design pl_interrupt_v1_0_pl_interrupt has unconnected port S_AXI_AWPROT[2]
WARNING: [Synth 8-3331] design pl_interrupt_v1_0_pl_interrupt has unconnected port S_AXI_AWPROT[1]
WARNING: [Synth 8-3331] design pl_interrupt_v1_0_pl_interrupt has unconnected port S_AXI_AWPROT[0]
WARNING: [Synth 8-3331] design pl_interrupt_v1_0_pl_interrupt has unconnected port S_AXI_ARPROT[2]
WARNING: [Synth 8-3331] design pl_interrupt_v1_0_pl_interrupt has unconnected port S_AXI_ARPROT[1]
WARNING: [Synth 8-3331] design pl_interrupt_v1_0_pl_interrupt has unconnected port S_AXI_ARPROT[0]
---------------------------------------------------------------------------------
Finished RTL Elaboration : Time (s): cpu = 00:00:03 ; elapsed = 00:00:04 . Memory (MB): peak = 1868.184 ; gain = 210.344 ; free physical = 3567 ; free virtual = 9668
---------------------------------------------------------------------------------

Report Check Netlist: 
+------+------------------+-------+---------+-------+------------------+
|      |Item              |Errors |Warnings |Status |Description       |
+------+------------------+-------+---------+-------+------------------+
|1     |multi_driven_nets |      0|        0|Passed |Multi driven nets |
+------+------------------+-------+---------+-------+------------------+
---------------------------------------------------------------------------------
Start Handling Custom Attributes
---------------------------------------------------------------------------------
---------------------------------------------------------------------------------
Finished Handling Custom Attributes : Time (s): cpu = 00:00:03 ; elapsed = 00:00:04 . Memory (MB): peak = 1871.152 ; gain = 213.312 ; free physical = 3551 ; free virtual = 9652
---------------------------------------------------------------------------------
---------------------------------------------------------------------------------
Finished RTL Optimization Phase 1 : Time (s): cpu = 00:00:03 ; elapsed = 00:00:04 . Memory (MB): peak = 1871.152 ; gain = 213.312 ; free physical = 3551 ; free virtual = 9652
---------------------------------------------------------------------------------
INFO: [Project 1-570] Preparing netlist for logic optimization

Processing XDC Constraints
Initializing timing engine
Completed Processing XDC Constraints

Netlist sorting complete. Time (s): cpu = 00:00:00 ; elapsed = 00:00:00 . Memory (MB): peak = 2037.902 ; gain = 0.000 ; free physical = 3407 ; free virtual = 9508
INFO: [Project 1-111] Unisim Transformation Summary:
No Unisim elements were transformed.

WARNING: [Constraints 18-5210] No constraints selected for write.
Resolution: This message can indicate that there are no constraints for the design, or it can indicate that the used_in flags are set such that the constraints are ignored. This later case is used when running synth_design to not write synthesis constraints to the resulting checkpoint. Instead, project constraints are read when the synthesized design is opened.
Constraint Validation Runtime : Time (s): cpu = 00:00:00.05 ; elapsed = 00:00:00.08 . Memory (MB): peak = 2037.902 ; gain = 0.000 ; free physical = 3399 ; free virtual = 9500
---------------------------------------------------------------------------------
Finished Constraint Validation : Time (s): cpu = 00:00:07 ; elapsed = 00:00:08 . Memory (MB): peak = 2037.902 ; gain = 380.062 ; free physical = 3499 ; free virtual = 9600
---------------------------------------------------------------------------------
---------------------------------------------------------------------------------
Start Loading Part and Timing Information
---------------------------------------------------------------------------------
Loading part: xc7z020clg484-1
---------------------------------------------------------------------------------
Finished Loading Part and Timing Information : Time (s): cpu = 00:00:07 ; elapsed = 00:00:08 . Memory (MB): peak = 2037.902 ; gain = 380.062 ; free physical = 3499 ; free virtual = 9600
---------------------------------------------------------------------------------
---------------------------------------------------------------------------------
Start Applying 'set_property' XDC Constraints
---------------------------------------------------------------------------------
---------------------------------------------------------------------------------
Finished applying 'set_property' XDC Constraints : Time (s): cpu = 00:00:07 ; elapsed = 00:00:08 . Memory (MB): peak = 2037.902 ; gain = 380.062 ; free physical = 3498 ; free virtual = 9599
---------------------------------------------------------------------------------
---------------------------------------------------------------------------------
Finished RTL Optimization Phase 2 : Time (s): cpu = 00:00:07 ; elapsed = 00:00:09 . Memory (MB): peak = 2037.902 ; gain = 380.062 ; free physical = 3486 ; free virtual = 9588
---------------------------------------------------------------------------------

Report RTL Partitions: 
+-+--------------+------------+----------+
| |RTL Partition |Replication |Instances |
+-+--------------+------------+----------+
+-+--------------+------------+----------+
---------------------------------------------------------------------------------
Start RTL Component Statistics 
---------------------------------------------------------------------------------
Detailed RTL Component Info : 
+---Registers : 
	               32 Bit    Registers := 4     
	                4 Bit    Registers := 2     
	                2 Bit    Registers := 2     
	                1 Bit    Registers := 6     
+---Muxes : 
	   2 Input     32 Bit        Muxes := 3     
	   4 Input     32 Bit        Muxes := 4     
	   2 Input      1 Bit        Muxes := 5     
---------------------------------------------------------------------------------
Finished RTL Component Statistics 
---------------------------------------------------------------------------------
---------------------------------------------------------------------------------
Start RTL Hierarchical Component Statistics 
---------------------------------------------------------------------------------
Hierarchical RTL Component report 
Module pl_interrupt_v1_0_pl_interrupt 
Detailed RTL Component Info : 
+---Registers : 
	               32 Bit    Registers := 4     
	                4 Bit    Registers := 2     
	                2 Bit    Registers := 2     
	                1 Bit    Registers := 6     
+---Muxes : 
	   2 Input     32 Bit        Muxes := 3     
	   4 Input     32 Bit        Muxes := 4     
	   2 Input      1 Bit        Muxes := 5     
---------------------------------------------------------------------------------
Finished RTL Hierarchical Component Statistics
---------------------------------------------------------------------------------
---------------------------------------------------------------------------------
Start Part Resource Summary
---------------------------------------------------------------------------------
Part Resources:
DSPs: 220 (col length:60)
BRAMs: 280 (col length: RAMB18 60 RAMB36 30)
---------------------------------------------------------------------------------
Finished Part Resource Summary
---------------------------------------------------------------------------------
---------------------------------------------------------------------------------
Start Cross Boundary and Area Optimization
---------------------------------------------------------------------------------
Warning: Parallel synthesis criteria is not met 
WARNING: [Synth 8-3331] design tetris_pl_interrupt_0_3 has unconnected port pl_interrupt_awprot[2]
WARNING: [Synth 8-3331] design tetris_pl_interrupt_0_3 has unconnected port pl_interrupt_awprot[1]
WARNING: [Synth 8-3331] design tetris_pl_interrupt_0_3 has unconnected port pl_interrupt_awprot[0]
WARNING: [Synth 8-3331] design tetris_pl_interrupt_0_3 has unconnected port pl_interrupt_arprot[2]
WARNING: [Synth 8-3331] design tetris_pl_interrupt_0_3 has unconnected port pl_interrupt_arprot[1]
WARNING: [Synth 8-3331] design tetris_pl_interrupt_0_3 has unconnected port pl_interrupt_arprot[0]
INFO: [Synth 8-3886] merging instance 'inst/pl_interrupt_v1_0_pl_interrupt_inst/axi_rresp_reg[0]' (FDRE) to 'inst/pl_interrupt_v1_0_pl_interrupt_inst/axi_rresp_reg[1]'
INFO: [Synth 8-3333] propagating constant 0 across sequential element (\inst/pl_interrupt_v1_0_pl_interrupt_inst/axi_rresp_reg[1] )
INFO: [Synth 8-3886] merging instance 'inst/pl_interrupt_v1_0_pl_interrupt_inst/axi_bresp_reg[0]' (FDRE) to 'inst/pl_interrupt_v1_0_pl_interrupt_inst/axi_bresp_reg[1]'
INFO: [Synth 8-3333] propagating constant 0 across sequential element (\inst/pl_interrupt_v1_0_pl_interrupt_inst/axi_bresp_reg[1] )
---------------------------------------------------------------------------------
Finished Cross Boundary and Area Optimization : Time (s): cpu = 00:00:08 ; elapsed = 00:00:09 . Memory (MB): peak = 2037.902 ; gain = 380.062 ; free physical = 3500 ; free virtual = 9605
---------------------------------------------------------------------------------

Report RTL Partitions: 
+-+--------------+------------+----------+
| |RTL Partition |Replication |Instances |
+-+--------------+------------+----------+
+-+--------------+------------+----------+
---------------------------------------------------------------------------------
Start Applying XDC Timing Constraints
---------------------------------------------------------------------------------
---------------------------------------------------------------------------------
Finished Applying XDC Timing Constraints : Time (s): cpu = 00:00:13 ; elapsed = 00:00:14 . Memory (MB): peak = 2037.902 ; gain = 380.062 ; free physical = 3339 ; free virtual = 9455
---------------------------------------------------------------------------------
---------------------------------------------------------------------------------
Start Timing Optimization
---------------------------------------------------------------------------------
---------------------------------------------------------------------------------
Finished Timing Optimization : Time (s): cpu = 00:00:13 ; elapsed = 00:00:14 . Memory (MB): peak = 2037.902 ; gain = 380.062 ; free physical = 3338 ; free virtual = 9455
---------------------------------------------------------------------------------

Report RTL Partitions: 
+-+--------------+------------+----------+
| |RTL Partition |Replication |Instances |
+-+--------------+------------+----------+
+-+--------------+------------+----------+
---------------------------------------------------------------------------------
Start Technology Mapping
---------------------------------------------------------------------------------
---------------------------------------------------------------------------------
Finished Technology Mapping : Time (s): cpu = 00:00:13 ; elapsed = 00:00:14 . Memory (MB): peak = 2037.902 ; gain = 380.062 ; free physical = 3331 ; free virtual = 9447
---------------------------------------------------------------------------------

Report RTL Partitions: 
+-+--------------+------------+----------+
| |RTL Partition |Replication |Instances |
+-+--------------+------------+----------+
+-+--------------+------------+----------+
---------------------------------------------------------------------------------
Start IO Insertion
---------------------------------------------------------------------------------
---------------------------------------------------------------------------------
Start Flattening Before IO Insertion
---------------------------------------------------------------------------------
---------------------------------------------------------------------------------
Finished Flattening Before IO Insertion
---------------------------------------------------------------------------------
---------------------------------------------------------------------------------
Start Final Netlist Cleanup
---------------------------------------------------------------------------------
---------------------------------------------------------------------------------
Finished Final Netlist Cleanup
---------------------------------------------------------------------------------
---------------------------------------------------------------------------------
Finished IO Insertion : Time (s): cpu = 00:00:14 ; elapsed = 00:00:16 . Memory (MB): peak = 2037.902 ; gain = 380.062 ; free physical = 3333 ; free virtual = 9449
---------------------------------------------------------------------------------

Report Check Netlist: 
+------+------------------+-------+---------+-------+------------------+
|      |Item              |Errors |Warnings |Status |Description       |
+------+------------------+-------+---------+-------+------------------+
|1     |multi_driven_nets |      0|        0|Passed |Multi driven nets |
+------+------------------+-------+---------+-------+------------------+
---------------------------------------------------------------------------------
Start Renaming Generated Instances
---------------------------------------------------------------------------------
---------------------------------------------------------------------------------
Finished Renaming Generated Instances : Time (s): cpu = 00:00:14 ; elapsed = 00:00:16 . Memory (MB): peak = 2037.902 ; gain = 380.062 ; free physical = 3333 ; free virtual = 9449
---------------------------------------------------------------------------------

Report RTL Partitions: 
+-+--------------+------------+----------+
| |RTL Partition |Replication |Instances |
+-+--------------+------------+----------+
+-+--------------+------------+----------+
---------------------------------------------------------------------------------
Start Rebuilding User Hierarchy
---------------------------------------------------------------------------------
---------------------------------------------------------------------------------
Finished Rebuilding User Hierarchy : Time (s): cpu = 00:00:14 ; elapsed = 00:00:16 . Memory (MB): peak = 2037.902 ; gain = 380.062 ; free physical = 3333 ; free virtual = 9449
---------------------------------------------------------------------------------
---------------------------------------------------------------------------------
Start Renaming Generated Ports
---------------------------------------------------------------------------------
---------------------------------------------------------------------------------
Finished Renaming Generated Ports : Time (s): cpu = 00:00:14 ; elapsed = 00:00:16 . Memory (MB): peak = 2037.902 ; gain = 380.062 ; free physical = 3333 ; free virtual = 9449
---------------------------------------------------------------------------------
---------------------------------------------------------------------------------
Start Handling Custom Attributes
---------------------------------------------------------------------------------
---------------------------------------------------------------------------------
Finished Handling Custom Attributes : Time (s): cpu = 00:00:14 ; elapsed = 00:00:16 . Memory (MB): peak = 2037.902 ; gain = 380.062 ; free physical = 3333 ; free virtual = 9449
---------------------------------------------------------------------------------
---------------------------------------------------------------------------------
Start Renaming Generated Nets
---------------------------------------------------------------------------------
---------------------------------------------------------------------------------
Finished Renaming Generated Nets : Time (s): cpu = 00:00:14 ; elapsed = 00:00:16 . Memory (MB): peak = 2037.902 ; gain = 380.062 ; free physical = 3333 ; free virtual = 9449
---------------------------------------------------------------------------------
---------------------------------------------------------------------------------
Start Writing Synthesis Report
---------------------------------------------------------------------------------

Report BlackBoxes: 
+-+--------------+----------+
| |BlackBox name |Instances |
+-+--------------+----------+
+-+--------------+----------+

Report Cell Usage: 
+------+-----+------+
|      |Cell |Count |
+------+-----+------+
|1     |LUT1 |     1|
|2     |LUT2 |     1|
|3     |LUT3 |     1|
|4     |LUT4 |    18|
|5     |LUT5 |    28|
|6     |LUT6 |     8|
|7     |FDRE |   137|
|8     |FDSE |     1|
+------+-----+------+

Report Instance Areas: 
+------+----------------------------------------+-------------------------------+------+
|      |Instance                                |Module                         |Cells |
+------+----------------------------------------+-------------------------------+------+
|1     |top                                     |                               |   195|
|2     |  inst                                  |pl_interrupt_v1_0              |   195|
|3     |    pl_interrupt_v1_0_pl_interrupt_inst |pl_interrupt_v1_0_pl_interrupt |   195|
+------+----------------------------------------+-------------------------------+------+
---------------------------------------------------------------------------------
Finished Writing Synthesis Report : Time (s): cpu = 00:00:14 ; elapsed = 00:00:16 . Memory (MB): peak = 2037.902 ; gain = 380.062 ; free physical = 3333 ; free virtual = 9449
---------------------------------------------------------------------------------
Synthesis finished with 0 errors, 0 critical warnings and 6 warnings.
Synthesis Optimization Runtime : Time (s): cpu = 00:00:13 ; elapsed = 00:00:14 . Memory (MB): peak = 2037.902 ; gain = 213.312 ; free physical = 3389 ; free virtual = 9505
Synthesis Optimization Complete : Time (s): cpu = 00:00:14 ; elapsed = 00:00:16 . Memory (MB): peak = 2037.902 ; gain = 380.062 ; free physical = 3389 ; free virtual = 9505
INFO: [Project 1-571] Translating synthesized netlist
INFO: [Project 1-570] Preparing netlist for logic optimization
INFO: [Opt 31-138] Pushed 0 inverter(s) to 0 load pin(s).
Netlist sorting complete. Time (s): cpu = 00:00:00 ; elapsed = 00:00:00 . Memory (MB): peak = 2037.902 ; gain = 0.000 ; free physical = 3333 ; free virtual = 9449
INFO: [Project 1-111] Unisim Transformation Summary:
No Unisim elements were transformed.

INFO: [Common 17-83] Releasing license: Synthesis
24 Infos, 15 Warnings, 0 Critical Warnings and 0 Errors encountered.
synth_design completed successfully
synth_design: Time (s): cpu = 00:00:18 ; elapsed = 00:00:20 . Memory (MB): peak = 2037.902 ; gain = 610.902 ; free physical = 3431 ; free virtual = 9547
Netlist sorting complete. Time (s): cpu = 00:00:00 ; elapsed = 00:00:00 . Memory (MB): peak = 2037.902 ; gain = 0.000 ; free physical = 3431 ; free virtual = 9547
WARNING: [Constraints 18-5210] No constraints selected for write.
Resolution: This message can indicate that there are no constraints for the design, or it can indicate that the used_in flags are set such that the constraints are ignored. This later case is used when running synth_design to not write synthesis constraints to the resulting checkpoint. Instead, project constraints are read when the synthesized design is opened.
INFO: [Common 17-1381] The checkpoint '/home/yuhuig/tetris/tetris_project/tetris_project.runs/tetris_pl_interrupt_0_3_synth_1/tetris_pl_interrupt_0_3.dcp' has been generated.
WARNING: [Common 17-576] 'use_project_ipc' is deprecated. This option is deprecated and no longer used.
INFO: [Coretcl 2-1648] Added synthesis output to IP cache for IP tetris_pl_interrupt_0_3, cache-ID = 8e7b57ec8d916bc9
INFO: [Coretcl 2-1174] Renamed 2 cell refs.
Netlist sorting complete. Time (s): cpu = 00:00:00 ; elapsed = 00:00:00 . Memory (MB): peak = 2061.914 ; gain = 0.000 ; free physical = 3428 ; free virtual = 9544
WARNING: [Constraints 18-5210] No constraints selected for write.
Resolution: This message can indicate that there are no constraints for the design, or it can indicate that the used_in flags are set such that the constraints are ignored. This later case is used when running synth_design to not write synthesis constraints to the resulting checkpoint. Instead, project constraints are read when the synthesized design is opened.
INFO: [Common 17-1381] The checkpoint '/home/yuhuig/tetris/tetris_project/tetris_project.runs/tetris_pl_interrupt_0_3_synth_1/tetris_pl_interrupt_0_3.dcp' has been generated.
INFO: [runtcl-4] Executing : report_utilization -file tetris_pl_interrupt_0_3_utilization_synth.rpt -pb tetris_pl_interrupt_0_3_utilization_synth.pb
INFO: [Common 17-206] Exiting Vivado at Tue Mar 31 16:00:24 2020...
